<svg xmlns="http://www.w3.org/2000/svg" width="80.434" height="27.485" viewBox="0 0 80.434 27.485">
  <g id="newarrow-left" transform="translate(688.434 814.631) rotate(180)">
    <line id="Line_105" data-name="Line 105" x2="79.844" transform="translate(608 800.905)" fill="none" stroke="#111520" stroke-width="1"/>
    <g id="Group_15242" data-name="Group 15242" transform="translate(674.609 787.5)">
      <line id="Line_106" data-name="Line 106" x2="13.471" y2="13.471" transform="translate(0 0)" fill="none" stroke="#111520" stroke-width="1"/>
      <line id="Line_107" data-name="Line 107" y1="13.471" x2="13.471" transform="translate(0 13.307)" fill="none" stroke="#111520" stroke-width="1"/>
    </g>
  </g>
</svg>
